AMO Lab/Pound-Drever-Hall/Piezo Voltage Responce/Data/F0001CH4.CSV

Record Length,2.500000e+03,,  -0.006040000000,  10.40000,
Sample Interval,4.000000e-06,,  -0.006036000000,  10.40000,
Trigger Point,1.510000000000e+03,,  -0.006032000000,  10.40000,
,,,  -0.006028000000,  10.40000,
,,,  -0.006024000000,  10.40000,
,,,  -0.006020000000,  10.40000,
Source,CH4,,  -0.006016000000,   9.60000,
Vertical Units,V,,  -0.006012000000,  10.40000,
Vertical Scale,2.000000e+01,,  -0.006008000000,   9.60000,
Vertical Offset,-6.560000e+01,,  -0.006004000000,  10.40000,
Horizontal Units,s,,  -0.006000000000,   9.60000,
Horizontal Scale,1.000000e-03,,  -0.005996000000,   9.60000,
Pt Fmt,Y,,  -0.005992000000,   9.60000,
Yzero,0.000000e+00,,  -0.005988000000,  10.40000,
Probe Atten,1.000000e+01,,  -0.005984000000,   9.60000,
Model Number,TDS2024C,,  -0.005980000000,   9.60000,
Serial Number,C017949,,  -0.005976000000,   8.80000,
Firmware Version,FV:v24.18,,  -0.005972000000,   9.60000,
,,,-00.005968000000,   9.60000,
,,,-00.005964000000,   8.80000,
,,,-00.005960000000,   9.60000,
,,,-00.005956000000,   9.60000,
,,,-00.005952000000,   8.80000,
,,,-00.005948000000,   9.60000,
,,,-00.005944000000,   8.80000,
,,,-00.005940000000,   8.80000,
,,,-00.005936000000,   8.80000,
,,,-00.005932000000,   8.80000,
,,,-00.005928000000,   8.80000,
,,,-00.005924000000,   8.80000,
,,,-00.005920000000,   8.80000,
,,,-00.005916000000,   9.60000,
,,,-00.005912000000,   8.80000,
,,,-00.005908000000,   8.80000,
,,,-00.005904000000,   8.80000,
,,,-00.005900000000,   8.80000,
,,,-00.005896000000,   8.80000,
,,,-00.005892000000,   8.80000,
,,,-00.005888000000,   8.00000,
,,,-00.005884000000,   8.80000,
,,,-00.005880000000,   8.80000,
,,,-00.005876000000,   8.80000,
,,,-00.005872000000,   8.80000,
,,,-00.005868000000,   8.80000,
,,,-00.005864000000,   9.60000,
,,,-00.005860000000,   8.80000,
,,,-00.005856000000,   8.80000,
,,,-00.005852000000,   8.80000,
,,,-00.005848000000,   9.60000,
,,,-00.005844000000,   8.80000,
,,,-00.005840000000,   8.80000,
,,,-00.005836000000,   8.80000,
,,,-00.005832000000,   9.60000,
,,,-00.005828000000,   8.80000,
,,,-00.005824000000,   8.80000,
,,,-00.005820000000,   9.60000,
,,,-00.005816000000,   9.60000,
,,,-00.005812000000,   9.60000,
,,,-00.005808000000,   9.60000,
,,,-00.005804000000,   9.60000,
,,,-00.005800000000,   8.80000,
,,,-00.005796000000,   9.60000,
,,,-00.005792000000,   9.60000,
,,,-00.005788000000,   9.60000,
,,,-00.005784000000,   9.60000,
,,,-00.005780000000,   9.60000,
,,,-00.005776000000,  10.40000,
,,,-00.005772000000,  10.40000,
,,,-00.005768000000,   9.60000,
,,,-00.005764000000,   9.60000,
,,,-00.005760000000,  10.40000,
,,,-00.005756000000,   9.60000,
,,,-00.005752000000,  10.40000,
,,,-00.005748000000,  10.40000,
,,,-00.005744000000,   9.60000,
,,,-00.005740000000,  10.40000,
,,,-00.005736000000,  10.40000,
,,,-00.005732000000,  10.40000,
,,,-00.005728000000,   9.60000,
,,,-00.005724000000,  10.40000,
,,,-00.005720000000,  10.40000,
,,,-00.005716000000,  11.20000,
,,,-00.005712000000,  11.20000,
,,,-00.005708000000,  11.20000,
,,,-00.005704000000,  11.20000,
,,,-00.005700000000,  11.20000,
,,,-00.005696000000,  11.20000,
,,,-00.005692000000,  10.40000,
,,,-00.005688000000,  10.40000,
,,,-00.005684000000,  11.20000,
,,,-00.005680000000,  11.20000,
,,,-00.005676000000,  11.20000,
,,,-00.005672000000,  11.20000,
,,,-00.005668000000,  11.20000,
,,,-00.005664000000,  11.20000,
,,,-00.005660000000,  11.20000,
,,,-00.005656000000,  11.20000,
,,,-00.005652000000,  11.20000,
,,,-00.005648000000,  11.20000,
,,,-00.005644000000,  11.20000,
,,,-00.005640000000,  11.20000,
,,,-00.005636000000,  11.20000,
,,,-00.005632000000,  12.00000,
,,,-00.005628000000,  11.20000,
,,,-00.005624000000,  11.20000,
,,,-00.005620000000,  11.20000,
,,,-00.005616000000,  11.20000,
,,,-00.005612000000,  12.00000,
,,,-00.005608000000,  11.20000,
,,,-00.005604000000,  12.00000,
,,,-00.005600000000,  11.20000,
,,,-00.005596000000,  12.00000,
,,,-00.005592000000,  12.00000,
,,,-00.005588000000,  12.00000,
,,,-00.005584000000,  12.00000,
,,,-00.005580000000,  12.00000,
,,,-00.005576000000,  12.00000,
,,,-00.005572000000,  12.00000,
,,,-00.005568000000,  12.00000,
,,,-00.005564000000,  12.00000,
,,,-00.005560000000,  12.00000,
,,,-00.005556000000,  12.00000,
,,,-00.005552000000,  12.00000,
,,,-00.005548000000,  12.00000,
,,,-00.005544000000,  12.80000,
,,,-00.005540000000,  12.00000,
,,,-00.005536000000,  12.00000,
,,,-00.005532000000,  12.80000,
,,,-00.005528000000,  12.80000,
,,,-00.005524000000,  12.80000,
,,,-00.005520000000,  12.80000,
,,,-00.005516000000,  12.00000,
,,,-00.005512000000,  12.80000,
,,,-00.005508000000,  12.80000,
,,,-00.005504000000,  12.00000,
,,,-00.005500000000,  12.80000,
,,,-00.005496000000,  12.80000,
,,,-00.005492000000,  12.80000,
,,,-00.005488000000,  12.80000,
,,,-00.005484000000,  12.80000,
,,,-00.005480000000,  12.80000,
,,,-00.005476000000,  13.60000,
,,,-00.005472000000,  13.60000,
,,,-00.005468000000,  12.80000,
,,,-00.005464000000,  12.80000,
,,,-00.005460000000,  12.80000,
,,,-00.005456000000,  13.60000,
,,,-00.005452000000,  13.60000,
,,,-00.005448000000,  13.60000,
,,,-00.005444000000,  13.60000,
,,,-00.005440000000,  13.60000,
,,,-00.005436000000,  13.60000,
,,,-00.005432000000,  13.60000,
,,,-00.005428000000,  13.60000,
,,,-00.005424000000,  13.60000,
,,,-00.005420000000,  13.60000,
,,,-00.005416000000,  13.60000,
,,,-00.005412000000,  13.60000,
,,,-00.005408000000,  13.60000,
,,,-00.005404000000,  14.40000,
,,,-00.005400000000,  14.40000,
,,,-00.005396000000,  13.60000,
,,,-00.005392000000,  14.40000,
,,,-00.005388000000,  14.40000,
,,,-00.005384000000,  13.60000,
,,,-00.005380000000,  14.40000,
,,,-00.005376000000,  14.40000,
,,,-00.005372000000,  14.40000,
,,,-00.005368000000,  14.40000,
,,,-00.005364000000,  14.40000,
,,,-00.005360000000,  14.40000,
,,,-00.005356000000,  14.40000,
,,,-00.005352000000,  15.20000,
,,,-00.005348000000,  14.40000,
,,,-00.005344000000,  14.40000,
,,,-00.005340000000,  15.20000,
,,,-00.005336000000,  15.20000,
,,,-00.005332000000,  14.40000,
,,,-00.005328000000,  14.40000,
,,,-00.005324000000,  15.20000,
,,,-00.005320000000,  15.20000,
,,,-00.005316000000,  14.40000,
,,,-00.005312000000,  15.20000,
,,,-00.005308000000,  15.20000,
,,,-00.005304000000,  15.20000,
,,,-00.005300000000,  15.20000,
,,,-00.005296000000,  15.20000,
,,,-00.005292000000,  15.20000,
,,,-00.005288000000,  16.00000,
,,,-00.005284000000,  16.00000,
,,,-00.005280000000,  15.20000,
,,,-00.005276000000,  15.20000,
,,,-00.005272000000,  15.20000,
,,,-00.005268000000,  15.20000,
,,,-00.005264000000,  15.20000,
,,,-00.005260000000,  16.00000,
,,,-00.005256000000,  16.00000,
,,,-00.005252000000,  16.00000,
,,,-00.005248000000,  15.20000,
,,,-00.005244000000,  16.00000,
,,,-00.005240000000,  16.00000,
,,,-00.005236000000,  15.20000,
,,,-00.005232000000,  16.00000,
,,,-00.005228000000,  16.80000,
,,,-00.005224000000,  16.00000,
,,,-00.005220000000,  16.00000,
,,,-00.005216000000,  15.20000,
,,,-00.005212000000,  16.00000,
,,,-00.005208000000,  16.00000,
,,,-00.005204000000,  16.00000,
,,,-00.005200000000,  16.00000,
,,,-00.005196000000,  16.00000,
,,,-00.005192000000,  16.00000,
,,,-00.005188000000,  16.80000,
,,,-00.005184000000,  16.00000,
,,,-00.005180000000,  16.80000,
,,,-00.005176000000,  16.80000,
,,,-00.005172000000,  16.80000,
,,,-00.005168000000,  16.80000,
,,,-00.005164000000,  16.80000,
,,,-00.005160000000,  16.80000,
,,,-00.005156000000,  16.00000,
,,,-00.005152000000,  16.80000,
,,,-00.005148000000,  16.80000,
,,,-00.005144000000,  17.60000,
,,,-00.005140000000,  16.80000,
,,,-00.005136000000,  17.60000,
,,,-00.005132000000,  17.60000,
,,,-00.005128000000,  17.60000,
,,,-00.005124000000,  17.60000,
,,,-00.005120000000,  16.80000,
,,,-00.005116000000,  17.60000,
,,,-00.005112000000,  17.60000,
,,,-00.005108000000,  17.60000,
,,,-00.005104000000,  17.60000,
,,,-00.005100000000,  17.60000,
,,,-00.005096000000,  17.60000,
,,,-00.005092000000,  17.60000,
,,,-00.005088000000,  17.60000,
,,,-00.005084000000,  17.60000,
,,,-00.005080000000,  17.60000,
,,,-00.005076000000,  17.60000,
,,,-00.005072000000,  18.40000,
,,,-00.005068000000,  17.60000,
,,,-00.005064000000,  17.60000,
,,,-00.005060000000,  17.60000,
,,,-00.005056000000,  18.40000,
,,,-00.005052000000,  18.40000,
,,,-00.005048000000,  17.60000,
,,,-00.005044000000,  18.40000,
,,,-00.005040000000,  18.40000,
,,,-00.005036000000,  17.60000,
,,,-00.005032000000,  18.40000,
,,,-00.005028000000,  18.40000,
,,,-00.005024000000,  18.40000,
,,,-00.005020000000,  18.40000,
,,,-00.005016000000,  18.40000,
,,,-00.005012000000,  18.40000,
,,,-00.005008000000,  18.40000,
,,,-00.005004000000,  18.40000,
,,,-00.005000000000,  18.40000,
,,,-00.004996000000,  18.40000,
,,,-00.004992000000,  18.40000,
,,,-00.004988000000,  18.40000,
,,,-00.004984000000,  18.40000,
,,,-00.004980000000,  19.20000,
,,,-00.004976000000,  18.40000,
,,,-00.004972000000,  19.20000,
,,,-00.004968000000,  19.20000,
,,,-00.004964000000,  19.20000,
,,,-00.004960000000,  19.20000,
,,,-00.004956000000,  19.20000,
,,,-00.004952000000,  19.20000,
,,,-00.004948000000,  19.20000,
,,,-00.004944000000,  19.20000,
,,,-00.004940000000,  19.20000,
,,,-00.004936000000,  19.20000,
,,,-00.004932000000,  19.20000,
,,,-00.004928000000,  19.20000,
,,,-00.004924000000,  19.20000,
,,,-00.004920000000,  20.00000,
,,,-00.004916000000,  19.20000,
,,,-00.004912000000,  20.00000,
,,,-00.004908000000,  19.20000,
,,,-00.004904000000,  19.20000,
,,,-00.004900000000,  19.20000,
,,,-00.004896000000,  20.00000,
,,,-00.004892000000,  20.00000,
,,,-00.004888000000,  20.00000,
,,,-00.004884000000,  20.00000,
,,,-00.004880000000,  19.20000,
,,,-00.004876000000,  20.00000,
,,,-00.004872000000,  19.20000,
,,,-00.004868000000,  19.20000,
,,,-00.004864000000,  20.00000,
,,,-00.004860000000,  20.00000,
,,,-00.004856000000,  19.20000,
,,,-00.004852000000,  20.00000,
,,,-00.004848000000,  20.00000,
,,,-00.004844000000,  20.00000,
,,,-00.004840000000,  20.80000,
,,,-00.004836000000,  20.80000,
,,,-00.004832000000,  20.80000,
,,,-00.004828000000,  20.80000,
,,,-00.004824000000,  20.80000,
,,,-00.004820000000,  20.80000,
,,,-00.004816000000,  20.80000,
,,,-00.004812000000,  21.60000,
,,,-00.004808000000,  21.60000,
,,,-00.004804000000,  20.80000,
,,,-00.004800000000,  20.80000,
,,,-00.004796000000,  20.80000,
,,,-00.004792000000,  20.80000,
,,,-00.004788000000,  20.80000,
,,,-00.004784000000,  20.80000,
,,,-00.004780000000,  20.80000,
,,,-00.004776000000,  20.80000,
,,,-00.004772000000,  20.80000,
,,,-00.004768000000,  21.60000,
,,,-00.004764000000,  21.60000,
,,,-00.004760000000,  21.60000,
,,,-00.004756000000,  21.60000,
,,,-00.004752000000,  21.60000,
,,,-00.004748000000,  21.60000,
,,,-00.004744000000,  21.60000,
,,,-00.004740000000,  21.60000,
,,,-00.004736000000,  21.60000,
,,,-00.004732000000,  21.60000,
,,,-00.004728000000,  21.60000,
,,,-00.004724000000,  21.60000,
,,,-00.004720000000,  21.60000,
,,,-00.004716000000,  22.40000,
,,,-00.004712000000,  21.60000,
,,,-00.004708000000,  22.40000,
,,,-00.004704000000,  21.60000,
,,,-00.004700000000,  22.40000,
,,,-00.004696000000,  21.60000,
,,,-00.004692000000,  21.60000,
,,,-00.004688000000,  22.40000,
,,,-00.004684000000,  22.40000,
,,,-00.004680000000,  22.40000,
,,,-00.004676000000,  22.40000,
,,,-00.004672000000,  22.40000,
,,,-00.004668000000,  21.60000,
,,,-00.004664000000,  22.40000,
,,,-00.004660000000,  23.20000,
,,,-00.004656000000,  22.40000,
,,,-00.004652000000,  22.40000,
,,,-00.004648000000,  22.40000,
,,,-00.004644000000,  23.20000,
,,,-00.004640000000,  22.40000,
,,,-00.004636000000,  23.20000,
,,,-00.004632000000,  23.20000,
,,,-00.004628000000,  22.40000,
,,,-00.004624000000,  23.20000,
,,,-00.004620000000,  23.20000,
,,,-00.004616000000,  23.20000,
,,,-00.004612000000,  22.40000,
,,,-00.004608000000,  23.20000,
,,,-00.004604000000,  23.20000,
,,,-00.004600000000,  23.20000,
,,,-00.004596000000,  23.20000,
,,,-00.004592000000,  23.20000,
,,,-00.004588000000,  23.20000,
,,,-00.004584000000,  23.20000,
,,,-00.004580000000,  23.20000,
,,,-00.004576000000,  23.20000,
,,,-00.004572000000,  24.00000,
,,,-00.004568000000,  23.20000,
,,,-00.004564000000,  23.20000,
,,,-00.004560000000,  24.00000,
,,,-00.004556000000,  24.00000,
,,,-00.004552000000,  23.20000,
,,,-00.004548000000,  24.00000,
,,,-00.004544000000,  24.00000,
,,,-00.004540000000,  24.00000,
,,,-00.004536000000,  24.00000,
,,,-00.004532000000,  24.00000,
,,,-00.004528000000,  24.00000,
,,,-00.004524000000,  24.00000,
,,,-00.004520000000,  24.00000,
,,,-00.004516000000,  24.00000,
,,,-00.004512000000,  24.00000,
,,,-00.004508000000,  24.00000,
,,,-00.004504000000,  24.00000,
,,,-00.004500000000,  24.80000,
,,,-00.004496000000,  24.80000,
,,,-00.004492000000,  24.00000,
,,,-00.004488000000,  24.80000,
,,,-00.004484000000,  24.80000,
,,,-00.004480000000,  24.80000,
,,,-00.004476000000,  24.80000,
,,,-00.004472000000,  24.80000,
,,,-00.004468000000,  24.00000,
,,,-00.004464000000,  24.80000,
,,,-00.004460000000,  24.80000,
,,,-00.004456000000,  24.80000,
,,,-00.004452000000,  24.80000,
,,,-00.004448000000,  24.80000,
,,,-00.004444000000,  25.60000,
,,,-00.004440000000,  25.60000,
,,,-00.004436000000,  24.80000,
,,,-00.004432000000,  25.60000,
,,,-00.004428000000,  24.80000,
,,,-00.004424000000,  25.60000,
,,,-00.004420000000,  25.60000,
,,,-00.004416000000,  25.60000,
,,,-00.004412000000,  25.60000,
,,,-00.004408000000,  25.60000,
,,,-00.004404000000,  25.60000,
,,,-00.004400000000,  25.60000,
,,,-00.004396000000,  25.60000,
,,,-00.004392000000,  25.60000,
,,,-00.004388000000,  25.60000,
,,,-00.004384000000,  25.60000,
,,,-00.004380000000,  25.60000,
,,,-00.004376000000,  25.60000,
,,,-00.004372000000,  25.60000,
,,,-00.004368000000,  25.60000,
,,,-00.004364000000,  26.40000,
,,,-00.004360000000,  26.40000,
,,,-00.004356000000,  26.40000,
,,,-00.004352000000,  26.40000,
,,,-00.004348000000,  26.40000,
,,,-00.004344000000,  26.40000,
,,,-00.004340000000,  26.40000,
,,,-00.004336000000,  25.60000,
,,,-00.004332000000,  26.40000,
,,,-00.004328000000,  26.40000,
,,,-00.004324000000,  26.40000,
,,,-00.004320000000,  26.40000,
,,,-00.004316000000,  26.40000,
,,,-00.004312000000,  26.40000,
,,,-00.004308000000,  26.40000,
,,,-00.004304000000,  26.40000,
,,,-00.004300000000,  26.40000,
,,,-00.004296000000,  27.20000,
,,,-00.004292000000,  26.40000,
,,,-00.004288000000,  26.40000,
,,,-00.004284000000,  28.00000,
,,,-00.004280000000,  27.20000,
,,,-00.004276000000,  27.20000,
,,,-00.004272000000,  26.40000,
,,,-00.004268000000,  27.20000,
,,,-00.004264000000,  27.20000,
,,,-00.004260000000,  27.20000,
,,,-00.004256000000,  28.00000,
,,,-00.004252000000,  27.20000,
,,,-00.004248000000,  27.20000,
,,,-00.004244000000,  28.00000,
,,,-00.004240000000,  27.20000,
,,,-00.004236000000,  28.00000,
,,,-00.004232000000,  28.00000,
,,,-00.004228000000,  28.00000,
,,,-00.004224000000,  28.00000,
,,,-00.004220000000,  28.00000,
,,,-00.004216000000,  28.00000,
,,,-00.004212000000,  28.00000,
,,,-00.004208000000,  28.00000,
,,,-00.004204000000,  28.00000,
,,,-00.004200000000,  28.00000,
,,,-00.004196000000,  28.00000,
,,,-00.004192000000,  28.00000,
,,,-00.004188000000,  28.00000,
,,,-00.004184000000,  28.80000,
,,,-00.004180000000,  28.00000,
,,,-00.004176000000,  28.80000,
,,,-00.004172000000,  28.80000,
,,,-00.004168000000,  28.00000,
,,,-00.004164000000,  28.80000,
,,,-00.004160000000,  28.80000,
,,,-00.004156000000,  28.80000,
,,,-00.004152000000,  28.80000,
,,,-00.004148000000,  28.00000,
,,,-00.004144000000,  28.80000,
,,,-00.004140000000,  28.80000,
,,,-00.004136000000,  28.00000,
,,,-00.004132000000,  28.00000,
,,,-00.004128000000,  28.80000,
,,,-00.004124000000,  28.80000,
,,,-00.004120000000,  28.80000,
,,,-00.004116000000,  28.80000,
,,,-00.004112000000,  28.80000,
,,,-00.004108000000,  29.60000,
,,,-00.004104000000,  29.60000,
,,,-00.004100000000,  29.60000,
,,,-00.004096000000,  29.60000,
,,,-00.004092000000,  28.80000,
,,,-00.004088000000,  29.60000,
,,,-00.004084000000,  29.60000,
,,,-00.004080000000,  29.60000,
,,,-00.004076000000,  29.60000,
,,,-00.004072000000,  29.60000,
,,,-00.004068000000,  29.60000,
,,,-00.004064000000,  29.60000,
,,,-00.004060000000,  29.60000,
,,,-00.004056000000,  29.60000,
,,,-00.004052000000,  29.60000,
,,,-00.004048000000,  30.40000,
,,,-00.004044000000,  29.60000,
,,,-00.004040000000,  29.60000,
,,,-00.004036000000,  29.60000,
,,,-00.004032000000,  29.60000,
,,,-00.004028000000,  30.40000,
,,,-00.004024000000,  30.40000,
,,,-00.004020000000,  30.40000,
,,,-00.004016000000,  29.60000,
,,,-00.004012000000,  30.40000,
,,,-00.004008000000,  30.40000,
,,,-00.004004000000,  29.60000,
,,,-00.004000000000,  30.40000,
,,,-00.003996000000,  30.40000,
,,,-00.003992000000,  31.20000,
,,,-00.003988000000,  30.40000,
,,,-00.003984000000,  30.40000,
,,,-00.003980000000,  30.40000,
,,,-00.003976000000,  30.40000,
,,,-00.003972000000,  30.40000,
,,,-00.003968000000,  31.20000,
,,,-00.003964000000,  30.40000,
,,,-00.003960000000,  31.20000,
,,,-00.003956000000,  31.20000,
,,,-00.003952000000,  31.20000,
,,,-00.003948000000,  31.20000,
,,,-00.003944000000,  31.20000,
,,,-00.003940000000,  31.20000,
,,,-00.003936000000,  31.20000,
,,,-00.003932000000,  32.00000,
,,,-00.003928000000,  31.20000,
,,,-00.003924000000,  31.20000,
,,,-00.003920000000,  32.00000,
,,,-00.003916000000,  31.20000,
,,,-00.003912000000,  31.20000,
,,,-00.003908000000,  32.00000,
,,,-00.003904000000,  32.00000,
,,,-00.003900000000,  31.20000,
,,,-00.003896000000,  32.00000,
,,,-00.003892000000,  32.00000,
,,,-00.003888000000,  32.00000,
,,,-00.003884000000,  32.00000,
,,,-00.003880000000,  32.00000,
,,,-00.003876000000,  32.00000,
,,,-00.003872000000,  32.00000,
,,,-00.003868000000,  32.00000,
,,,-00.003864000000,  32.00000,
,,,-00.003860000000,  32.00000,
,,,-00.003856000000,  32.00000,
,,,-00.003852000000,  32.00000,
,,,-00.003848000000,  32.00000,
,,,-00.003844000000,  32.00000,
,,,-00.003840000000,  32.80000,
,,,-00.003836000000,  32.80000,
,,,-00.003832000000,  32.80000,
,,,-00.003828000000,  32.80000,
,,,-00.003824000000,  32.00000,
,,,-00.003820000000,  32.00000,
,,,-00.003816000000,  32.80000,
,,,-00.003812000000,  32.80000,
,,,-00.003808000000,  32.80000,
,,,-00.003804000000,  32.00000,
,,,-00.003800000000,  32.80000,
,,,-00.003796000000,  32.00000,
,,,-00.003792000000,  32.80000,
,,,-00.003788000000,  32.80000,
,,,-00.003784000000,  32.80000,
,,,-00.003780000000,  32.80000,
,,,-00.003776000000,  32.80000,
,,,-00.003772000000,  33.60000,
,,,-00.003768000000,  32.80000,
,,,-00.003764000000,  32.80000,
,,,-00.003760000000,  33.60000,
,,,-00.003756000000,  32.80000,
,,,-00.003752000000,  32.80000,
,,,-00.003748000000,  33.60000,
,,,-00.003744000000,  33.60000,
,,,-00.003740000000,  33.60000,
,,,-00.003736000000,  33.60000,
,,,-00.003732000000,  33.60000,
,,,-00.003728000000,  33.60000,
,,,-00.003724000000,  33.60000,
,,,-00.003720000000,  33.60000,
,,,-00.003716000000,  33.60000,
,,,-00.003712000000,  33.60000,
,,,-00.003708000000,  33.60000,
,,,-00.003704000000,  33.60000,
,,,-00.003700000000,  33.60000,
,,,-00.003696000000,  33.60000,
,,,-00.003692000000,  33.60000,
,,,-00.003688000000,  33.60000,
,,,-00.003684000000,  33.60000,
,,,-00.003680000000,  34.40000,
,,,-00.003676000000,  34.40000,
,,,-00.003672000000,  34.40000,
,,,-00.003668000000,  34.40000,
,,,-00.003664000000,  34.40000,
,,,-00.003660000000,  34.40000,
,,,-00.003656000000,  34.40000,
,,,-00.003652000000,  34.40000,
,,,-00.003648000000,  34.40000,
,,,-00.003644000000,  34.40000,
,,,-00.003640000000,  34.40000,
,,,-00.003636000000,  34.40000,
,,,-00.003632000000,  34.40000,
,,,-00.003628000000,  35.20000,
,,,-00.003624000000,  34.40000,
,,,-00.003620000000,  34.40000,
,,,-00.003616000000,  34.40000,
,,,-00.003612000000,  34.40000,
,,,-00.003608000000,  35.20000,
,,,-00.003604000000,  34.40000,
,,,-00.003600000000,  35.20000,
,,,-00.003596000000,  35.20000,
,,,-00.003592000000,  35.20000,
,,,-00.003588000000,  35.20000,
