AMO Lab/Pound-Drever-Hall/Piezo Voltage Responce/Data/F0002CH2.CSV

Record Length,2.500000e+03,,   0.031500000000,  -0.48800,
Sample Interval,1.000000e-05,,   0.031510000000,  -0.48800,
Trigger Point,-3.150000000000e+03,,   0.031520000000,  -0.48800,
,,,   0.031530000000,  -0.50400,
,,,   0.031540000000,  -0.50000,
,,,   0.031550000000,  -0.51200,
Source,CH2,,   0.031560000000,  -0.50800,
Vertical Units,V,,   0.031570000000,  -0.52200,
Vertical Scale,5.000000e-02,,   0.031580000000,  -0.51400,
Vertical Offset,4.580000e-01,,   0.031590000000,  -0.53000,
Horizontal Units,s,,   0.031600000000,  -0.52200,
Horizontal Scale,2.500000e-03,,   0.031610000000,  -0.53600,
Pt Fmt,Y,,   0.031620000000,  -0.53000,
Yzero,0.000000e+00,,   0.031630000000,  -0.54400,
Probe Atten,1.000000e+00,,   0.031640000000,  -0.53200,
Model Number,TDS2024C,,   0.031650000000,  -0.54600,
Serial Number,C017949,,   0.031660000000,  -0.53800,
Firmware Version,FV:v24.18,,   0.031670000000,  -0.55200,
,,,0.031680000000,  -0.54200,
,,,0.031690000000,  -0.55200,
,,,0.031700000000,  -0.54600,
,,,0.031710000000,  -0.55600,
,,,0.031720000000,  -0.55800,
,,,0.031730000000,  -0.56200,
,,,0.031740000000,  -0.56200,
,,,0.031750000000,  -0.56600,
,,,0.031760000000,  -0.56600,
,,,0.031770000000,  -0.56600,
,,,0.031780000000,  -0.57000,
,,,0.031790000000,  -0.57400,
,,,0.031800000000,  -0.56600,
,,,0.031810000000,  -0.57600,
,,,0.031820000000,  -0.58000,
,,,0.031830000000,  -0.57400,
,,,0.031840000000,  -0.58400,
,,,0.031850000000,  -0.57400,
,,,0.031860000000,  -0.58000,
,,,0.031870000000,  -0.57400,
,,,0.031880000000,  -0.58800,
,,,0.031890000000,  -0.57000,
,,,0.031900000000,  -0.58800,
,,,0.031910000000,  -0.57200,
,,,0.031920000000,  -0.58600,
,,,0.031930000000,  -0.57200,
,,,0.031940000000,  -0.58200,
,,,0.031950000000,  -0.56800,
,,,0.031960000000,  -0.57800,
,,,0.031970000000,  -0.56000,
,,,0.031980000000,  -0.57600,
,,,0.031990000000,  -0.56200,
,,,0.032000000000,  -0.56800,
,,,0.032010000000,  -0.56200,
,,,0.032020000000,  -0.56400,
,,,0.032030000000,  -0.54600,
,,,0.032040000000,  -0.55400,
,,,0.032050000000,  -0.54200,
,,,0.032060000000,  -0.54800,
,,,0.032070000000,  -0.55000,
,,,0.032080000000,  -0.53800,
,,,0.032090000000,  -0.53800,
,,,0.032100000000,  -0.53000,
,,,0.032110000000,  -0.54000,
,,,0.032120000000,  -0.51200,
,,,0.032130000000,  -0.53400,
,,,0.032140000000,  -0.51800,
,,,0.032150000000,  -0.52800,
,,,0.032160000000,  -0.50000,
,,,0.032170000000,  -0.52400,
,,,0.032180000000,  -0.50400,
,,,0.032190000000,  -0.50200,
,,,0.032200000000,  -0.49200,
,,,0.032210000000,  -0.50800,
,,,0.032220000000,  -0.48400,
,,,0.032230000000,  -0.49400,
,,,0.032240000000,  -0.47200,
,,,0.032250000000,  -0.47200,
,,,0.032260000000,  -0.47600,
,,,0.032270000000,  -0.46000,
,,,0.032280000000,  -0.45200,
,,,0.032290000000,  -0.44400,
,,,0.032300000000,  -0.45200,
,,,0.032310000000,  -0.45200,
,,,0.032320000000,  -0.45200,
,,,0.032330000000,  -0.42200,
,,,0.032340000000,  -0.44600,
,,,0.032350000000,  -0.43600,
,,,0.032360000000,  -0.43600,
,,,0.032370000000,  -0.42400,
,,,0.032380000000,  -0.43800,
,,,0.032390000000,  -0.41800,
,,,0.032400000000,  -0.43000,
,,,0.032410000000,  -0.39600,
,,,0.032420000000,  -0.41400,
,,,0.032430000000,  -0.39800,
,,,0.032440000000,  -0.41400,
,,,0.032450000000,  -0.39400,
,,,0.032460000000,  -0.40400,
,,,0.032470000000,  -0.38600,
,,,0.032480000000,  -0.39400,
,,,0.032490000000,  -0.37800,
,,,0.032500000000,  -0.38600,
,,,0.032510000000,  -0.37400,
,,,0.032520000000,  -0.37600,
,,,0.032530000000,  -0.36200,
,,,0.032540000000,  -0.36800,
,,,0.032550000000,  -0.36200,
,,,0.032560000000,  -0.35400,
,,,0.032570000000,  -0.35600,
,,,0.032580000000,  -0.34800,
,,,0.032590000000,  -0.35000,
,,,0.032600000000,  -0.34200,
,,,0.032610000000,  -0.35000,
,,,0.032620000000,  -0.33400,
,,,0.032630000000,  -0.34800,
,,,0.032640000000,  -0.33000,
,,,0.032650000000,  -0.34400,
,,,0.032660000000,  -0.32600,
,,,0.032670000000,  -0.33600,
,,,0.032680000000,  -0.32200,
,,,0.032690000000,  -0.33000,
,,,0.032700000000,  -0.31600,
,,,0.032710000000,  -0.32600,
,,,0.032720000000,  -0.31200,
,,,0.032730000000,  -0.31600,
,,,0.032740000000,  -0.31200,
,,,0.032750000000,  -0.31200,
,,,0.032760000000,  -0.30200,
,,,0.032770000000,  -0.30400,
,,,0.032780000000,  -0.30400,
,,,0.032790000000,  -0.29800,
,,,0.032800000000,  -0.30600,
,,,0.032810000000,  -0.29600,
,,,0.032820000000,  -0.31000,
,,,0.032830000000,  -0.30200,
,,,0.032840000000,  -0.32400,
,,,0.032850000000,  -0.30000,
,,,0.032860000000,  -0.30200,
,,,0.032870000000,  -0.29000,
,,,0.032880000000,  -0.31800,
,,,0.032890000000,  -0.30800,
,,,0.032900000000,  -0.31000,
,,,0.032910000000,  -0.29600,
,,,0.032920000000,  -0.31800,
,,,0.032930000000,  -0.30400,
,,,0.032940000000,  -0.31200,
,,,0.032950000000,  -0.30200,
,,,0.032960000000,  -0.31000,
,,,0.032970000000,  -0.31600,
,,,0.032980000000,  -0.31000,
,,,0.032990000000,  -0.31000,
,,,0.033000000000,  -0.32400,
,,,0.033010000000,  -0.31600,
,,,0.033020000000,  -0.32400,
,,,0.033030000000,  -0.33400,
,,,0.033040000000,  -0.32000,
,,,0.033050000000,  -0.33200,
,,,0.033060000000,  -0.34000,
,,,0.033070000000,  -0.34200,
,,,0.033080000000,  -0.33400,
,,,0.033090000000,  -0.34400,
,,,0.033100000000,  -0.35600,
,,,0.033110000000,  -0.35600,
,,,0.033120000000,  -0.36200,
,,,0.033130000000,  -0.37200,
,,,0.033140000000,  -0.36400,
,,,0.033150000000,  -0.38000,
,,,0.033160000000,  -0.37000,
,,,0.033170000000,  -0.39400,
,,,0.033180000000,  -0.38200,
,,,0.033190000000,  -0.39800,
,,,0.033200000000,  -0.40200,
,,,0.033210000000,  -0.40200,
,,,0.033220000000,  -0.40800,
,,,0.033230000000,  -0.42200,
,,,0.033240000000,  -0.41600,
,,,0.033250000000,  -0.42600,
,,,0.033260000000,  -0.43000,
,,,0.033270000000,  -0.43600,
,,,0.033280000000,  -0.44600,
,,,0.033290000000,  -0.44400,
,,,0.033300000000,  -0.46200,
,,,0.033310000000,  -0.45200,
,,,0.033320000000,  -0.46600,
,,,0.033330000000,  -0.46000,
,,,0.033340000000,  -0.47800,
,,,0.033350000000,  -0.47000,
,,,0.033360000000,  -0.48800,
,,,0.033370000000,  -0.48000,
,,,0.033380000000,  -0.50000,
,,,0.033390000000,  -0.48600,
,,,0.033400000000,  -0.50200,
,,,0.033410000000,  -0.50000,
,,,0.033420000000,  -0.51200,
,,,0.033430000000,  -0.51000,
,,,0.033440000000,  -0.52000,
,,,0.033450000000,  -0.51800,
,,,0.033460000000,  -0.52600,
,,,0.033470000000,  -0.52400,
,,,0.033480000000,  -0.53000,
,,,0.033490000000,  -0.53200,
,,,0.033500000000,  -0.53400,
,,,0.033510000000,  -0.54400,
,,,0.033520000000,  -0.52800,
,,,0.033530000000,  -0.55000,
,,,0.033540000000,  -0.54200,
,,,0.033550000000,  -0.55800,
,,,0.033560000000,  -0.54400,
,,,0.033570000000,  -0.55600,
,,,0.033580000000,  -0.54600,
,,,0.033590000000,  -0.56200,
,,,0.033600000000,  -0.55400,
,,,0.033610000000,  -0.55800,
,,,0.033620000000,  -0.55400,
,,,0.033630000000,  -0.56400,
,,,0.033640000000,  -0.55400,
,,,0.033650000000,  -0.56800,
,,,0.033660000000,  -0.56000,
,,,0.033670000000,  -0.56600,
,,,0.033680000000,  -0.56000,
,,,0.033690000000,  -0.57000,
,,,0.033700000000,  -0.56400,
,,,0.033710000000,  -0.56400,
,,,0.033720000000,  -0.56000,
,,,0.033730000000,  -0.56400,
,,,0.033740000000,  -0.56200,
,,,0.033750000000,  -0.55200,
,,,0.033760000000,  -0.56400,
,,,0.033770000000,  -0.54200,
,,,0.033780000000,  -0.56600,
,,,0.033790000000,  -0.55800,
,,,0.033800000000,  -0.56000,
,,,0.033810000000,  -0.55400,
,,,0.033820000000,  -0.56000,
,,,0.033830000000,  -0.55200,
,,,0.033840000000,  -0.55000,
,,,0.033850000000,  -0.54600,
,,,0.033860000000,  -0.55400,
,,,0.033870000000,  -0.54000,
,,,0.033880000000,  -0.53800,
,,,0.033890000000,  -0.53200,
,,,0.033900000000,  -0.53000,
,,,0.033910000000,  -0.54200,
,,,0.033920000000,  -0.54400,
,,,0.033930000000,  -0.53200,
,,,0.033940000000,  -0.52200,
,,,0.033950000000,  -0.52400,
,,,0.033960000000,  -0.51000,
,,,0.033970000000,  -0.52400,
,,,0.033980000000,  -0.52200,
,,,0.033990000000,  -0.51800,
,,,0.034000000000,  -0.50400,
,,,0.034010000000,  -0.50400,
,,,0.034020000000,  -0.50000,
,,,0.034030000000,  -0.49400,
,,,0.034040000000,  -0.49400,
,,,0.034050000000,  -0.48600,
,,,0.034060000000,  -0.48400,
,,,0.034070000000,  -0.47000,
,,,0.034080000000,  -0.46800,
,,,0.034090000000,  -0.45400,
,,,0.034100000000,  -0.46600,
,,,0.034110000000,  -0.45800,
,,,0.034120000000,  -0.44200,
,,,0.034130000000,  -0.46000,
,,,0.034140000000,  -0.44200,
,,,0.034150000000,  -0.44400,
,,,0.034160000000,  -0.42400,
,,,0.034170000000,  -0.44000,
,,,0.034180000000,  -0.43000,
,,,0.034190000000,  -0.43800,
,,,0.034200000000,  -0.42400,
,,,0.034210000000,  -0.41800,
,,,0.034220000000,  -0.42200,
,,,0.034230000000,  -0.43400,
,,,0.034240000000,  -0.43000,
,,,0.034250000000,  -0.43400,
,,,0.034260000000,  -0.42400,
,,,0.034270000000,  -0.43400,
,,,0.034280000000,  -0.41800,
,,,0.034290000000,  -0.42800,
,,,0.034300000000,  -0.42600,
,,,0.034310000000,  -0.42400,
,,,0.034320000000,  -0.43000,
,,,0.034330000000,  -0.43000,
,,,0.034340000000,  -0.43800,
,,,0.034350000000,  -0.44000,
,,,0.034360000000,  -0.43600,
,,,0.034370000000,  -0.44000,
,,,0.034380000000,  -0.45000,
,,,0.034390000000,  -0.44600,
,,,0.034400000000,  -0.44800,
,,,0.034410000000,  -0.44400,
,,,0.034420000000,  -0.45600,
,,,0.034430000000,  -0.44400,
,,,0.034440000000,  -0.44800,
,,,0.034450000000,  -0.45200,
,,,0.034460000000,  -0.46400,
,,,0.034470000000,  -0.45200,
,,,0.034480000000,  -0.45800,
,,,0.034490000000,  -0.44600,
,,,0.034500000000,  -0.46000,
,,,0.034510000000,  -0.44600,
,,,0.034520000000,  -0.47000,
,,,0.034530000000,  -0.45600,
,,,0.034540000000,  -0.47000,
,,,0.034550000000,  -0.46800,
,,,0.034560000000,  -0.45600,
,,,0.034570000000,  -0.46400,
,,,0.034580000000,  -0.48200,
,,,0.034590000000,  -0.47600,
,,,0.034600000000,  -0.48400,
,,,0.034610000000,  -0.48400,
,,,0.034620000000,  -0.48000,
,,,0.034630000000,  -0.49800,
,,,0.034640000000,  -0.47800,
,,,0.034650000000,  -0.48200,
,,,0.034660000000,  -0.48400,
,,,0.034670000000,  -0.50800,
,,,0.034680000000,  -0.48400,
,,,0.034690000000,  -0.51200,
,,,0.034700000000,  -0.48800,
,,,0.034710000000,  -0.50600,
,,,0.034720000000,  -0.50400,
,,,0.034730000000,  -0.51800,
,,,0.034740000000,  -0.49000,
,,,0.034750000000,  -0.50600,
,,,0.034760000000,  -0.51800,
,,,0.034770000000,  -0.52200,
,,,0.034780000000,  -0.50200,
,,,0.034790000000,  -0.51800,
,,,0.034800000000,  -0.52800,
,,,0.034810000000,  -0.52400,
,,,0.034820000000,  -0.52400,
,,,0.034830000000,  -0.53200,
,,,0.034840000000,  -0.53800,
,,,0.034850000000,  -0.53400,
,,,0.034860000000,  -0.53800,
,,,0.034870000000,  -0.52000,
,,,0.034880000000,  -0.53800,
,,,0.034890000000,  -0.51200,
,,,0.034900000000,  -0.54600,
,,,0.034910000000,  -0.53200,
,,,0.034920000000,  -0.55200,
,,,0.034930000000,  -0.53800,
,,,0.034940000000,  -0.55400,
,,,0.034950000000,  -0.54000,
,,,0.034960000000,  -0.54800,
,,,0.034970000000,  -0.54600,
,,,0.034980000000,  -0.55400,
,,,0.034990000000,  -0.55200,
,,,0.035000000000,  -0.55400,
,,,0.035010000000,  -0.54400,
,,,0.035020000000,  -0.54600,
,,,0.035030000000,  -0.56000,
,,,0.035040000000,  -0.55800,
,,,0.035050000000,  -0.54800,
,,,0.035060000000,  -0.55600,
,,,0.035070000000,  -0.56000,
,,,0.035080000000,  -0.54600,
,,,0.035090000000,  -0.54800,
,,,0.035100000000,  -0.54800,
,,,0.035110000000,  -0.56000,
,,,0.035120000000,  -0.54600,
,,,0.035130000000,  -0.55400,
,,,0.035140000000,  -0.54200,
,,,0.035150000000,  -0.56000,
,,,0.035160000000,  -0.53200,
,,,0.035170000000,  -0.55200,
,,,0.035180000000,  -0.53400,
,,,0.035190000000,  -0.55000,
,,,0.035200000000,  -0.53000,
,,,0.035210000000,  -0.54600,
,,,0.035220000000,  -0.53600,
,,,0.035230000000,  -0.53000,
,,,0.035240000000,  -0.53400,
,,,0.035250000000,  -0.53000,
,,,0.035260000000,  -0.53000,
,,,0.035270000000,  -0.52600,
,,,0.035280000000,  -0.53000,
,,,0.035290000000,  -0.51600,
,,,0.035300000000,  -0.53400,
,,,0.035310000000,  -0.52000,
,,,0.035320000000,  -0.52600,
,,,0.035330000000,  -0.50600,
,,,0.035340000000,  -0.51400,
,,,0.035350000000,  -0.50800,
,,,0.035360000000,  -0.52200,
,,,0.035370000000,  -0.50800,
,,,0.035380000000,  -0.50800,
,,,0.035390000000,  -0.50400,
,,,0.035400000000,  -0.50400,
,,,0.035410000000,  -0.49600,
,,,0.035420000000,  -0.49400,
,,,0.035430000000,  -0.48600,
,,,0.035440000000,  -0.49000,
,,,0.035450000000,  -0.49200,
,,,0.035460000000,  -0.48400,
,,,0.035470000000,  -0.48400,
,,,0.035480000000,  -0.47800,
,,,0.035490000000,  -0.48200,
,,,0.035500000000,  -0.47000,
,,,0.035510000000,  -0.48400,
,,,0.035520000000,  -0.45800,
,,,0.035530000000,  -0.47600,
,,,0.035540000000,  -0.45800,
,,,0.035550000000,  -0.46200,
,,,0.035560000000,  -0.46000,
,,,0.035570000000,  -0.46400,
,,,0.035580000000,  -0.45800,
,,,0.035590000000,  -0.46200,
,,,0.035600000000,  -0.45000,
,,,0.035610000000,  -0.45800,
,,,0.035620000000,  -0.45200,
,,,0.035630000000,  -0.44600,
,,,0.035640000000,  -0.44400,
,,,0.035650000000,  -0.44000,
,,,0.035660000000,  -0.44200,
,,,0.035670000000,  -0.41400,
,,,0.035680000000,  -0.43400,
,,,0.035690000000,  -0.42400,
,,,0.035700000000,  -0.43000,
,,,0.035710000000,  -0.42200,
,,,0.035720000000,  -0.42600,
,,,0.035730000000,  -0.41400,
,,,0.035740000000,  -0.42600,
,,,0.035750000000,  -0.40800,
,,,0.035760000000,  -0.42000,
,,,0.035770000000,  -0.40400,
,,,0.035780000000,  -0.41200,
,,,0.035790000000,  -0.39800,
,,,0.035800000000,  -0.41000,
,,,0.035810000000,  -0.39200,
,,,0.035820000000,  -0.39800,
,,,0.035830000000,  -0.39000,
,,,0.035840000000,  -0.39000,
,,,0.035850000000,  -0.39200,
,,,0.035860000000,  -0.38400,
,,,0.035870000000,  -0.39000,
,,,0.035880000000,  -0.37200,
,,,0.035890000000,  -0.38200,
,,,0.035900000000,  -0.36800,
,,,0.035910000000,  -0.37200,
,,,0.035920000000,  -0.36000,
,,,0.035930000000,  -0.37400,
,,,0.035940000000,  -0.35200,
,,,0.035950000000,  -0.36800,
,,,0.035960000000,  -0.35600,
,,,0.035970000000,  -0.36000,
,,,0.035980000000,  -0.34200,
,,,0.035990000000,  -0.35200,
,,,0.036000000000,  -0.34400,
,,,0.036010000000,  -0.34400,
,,,0.036020000000,  -0.32800,
,,,0.036030000000,  -0.34800,
,,,0.036040000000,  -0.32800,
,,,0.036050000000,  -0.33000,
,,,0.036060000000,  -0.33000,
,,,0.036070000000,  -0.32400,
,,,0.036080000000,  -0.32000,
,,,0.036090000000,  -0.32000,
,,,0.036100000000,  -0.31400,
,,,0.036110000000,  -0.30600,
,,,0.036120000000,  -0.32000,
,,,0.036130000000,  -0.31000,
,,,0.036140000000,  -0.31400,
,,,0.036150000000,  -0.30200,
,,,0.036160000000,  -0.30800,
,,,0.036170000000,  -0.30000,
,,,0.036180000000,  -0.31800,
,,,0.036190000000,  -0.31000,
,,,0.036200000000,  -0.31000,
,,,0.036210000000,  -0.29600,
,,,0.036220000000,  -0.29800,
,,,0.036230000000,  -0.28600,
,,,0.036240000000,  -0.29400,
,,,0.036250000000,  -0.29000,
,,,0.036260000000,  -0.29600,
,,,0.036270000000,  -0.29200,
,,,0.036280000000,  -0.28600,
,,,0.036290000000,  -0.30000,
,,,0.036300000000,  -0.29000,
,,,0.036310000000,  -0.29000,
,,,0.036320000000,  -0.29600,
,,,0.036330000000,  -0.28400,
,,,0.036340000000,  -0.28800,
,,,0.036350000000,  -0.30200,
,,,0.036360000000,  -0.29200,
,,,0.036370000000,  -0.29400,
,,,0.036380000000,  -0.29000,
,,,0.036390000000,  -0.29800,
,,,0.036400000000,  -0.29000,
,,,0.036410000000,  -0.29800,
,,,0.036420000000,  -0.28800,
,,,0.036430000000,  -0.30200,
,,,0.036440000000,  -0.29800,
,,,0.036450000000,  -0.31400,
,,,0.036460000000,  -0.29200,
,,,0.036470000000,  -0.30400,
,,,0.036480000000,  -0.30200,
,,,0.036490000000,  -0.31200,
,,,0.036500000000,  -0.31200,
,,,0.036510000000,  -0.31200,
,,,0.036520000000,  -0.31400,
,,,0.036530000000,  -0.32000,
,,,0.036540000000,  -0.31800,
,,,0.036550000000,  -0.31600,
,,,0.036560000000,  -0.32000,
,,,0.036570000000,  -0.32200,
,,,0.036580000000,  -0.32800,
,,,0.036590000000,  -0.32400,
,,,0.036600000000,  -0.33800,
,,,0.036610000000,  -0.33200,
,,,0.036620000000,  -0.34000,
,,,0.036630000000,  -0.33600,
,,,0.036640000000,  -0.34800,
,,,0.036650000000,  -0.34200,
,,,0.036660000000,  -0.35200,
,,,0.036670000000,  -0.34400,
,,,0.036680000000,  -0.36200,
,,,0.036690000000,  -0.35200,
,,,0.036700000000,  -0.36400,
,,,0.036710000000,  -0.36600,
,,,0.036720000000,  -0.37800,
,,,0.036730000000,  -0.37400,
,,,0.036740000000,  -0.38000,
,,,0.036750000000,  -0.36600,
,,,0.036760000000,  -0.38400,
,,,0.036770000000,  -0.38400,
,,,0.036780000000,  -0.38400,
,,,0.036790000000,  -0.39200,
,,,0.036800000000,  -0.38400,
,,,0.036810000000,  -0.40000,
,,,0.036820000000,  -0.40200,
,,,0.036830000000,  -0.40600,
,,,0.036840000000,  -0.40200,
,,,0.036850000000,  -0.41200,
,,,0.036860000000,  -0.40200,
,,,0.036870000000,  -0.41600,
,,,0.036880000000,  -0.41400,
,,,0.036890000000,  -0.42000,
,,,0.036900000000,  -0.42000,
,,,0.036910000000,  -0.42200,
,,,0.036920000000,  -0.43200,
,,,0.036930000000,  -0.44400,
,,,0.036940000000,  -0.44200,
,,,0.036950000000,  -0.45000,
,,,0.036960000000,  -0.44600,
,,,0.036970000000,  -0.44800,
,,,0.036980000000,  -0.43600,
,,,0.036990000000,  -0.45600,
,,,0.037000000000,  -0.44800,
,,,0.037010000000,  -0.44800,
,,,0.037020000000,  -0.46000,
,,,0.037030000000,  -0.46400,
,,,0.037040000000,  -0.46200,
,,,0.037050000000,  -0.47800,
,,,0.037060000000,  -0.47600,
,,,0.037070000000,  -0.46800,
,,,0.037080000000,  -0.47200,
,,,0.037090000000,  -0.48400,
,,,0.037100000000,  -0.48800,
,,,0.037110000000,  -0.47600,
,,,0.037120000000,  -0.48600,
,,,0.037130000000,  -0.49000,
,,,0.037140000000,  -0.50400,
,,,0.037150000000,  -0.50000,
,,,0.037160000000,  -0.50000,
,,,0.037170000000,  -0.49000,
,,,0.037180000000,  -0.51800,
,,,0.037190000000,  -0.50800,
,,,0.037200000000,  -0.51600,
,,,0.037210000000,  -0.52000,
,,,0.037220000000,  -0.51400,
,,,0.037230000000,  -0.52600,
,,,0.037240000000,  -0.52600,
,,,0.037250000000,  -0.52200,
,,,0.037260000000,  -0.52800,
,,,0.037270000000,  -0.53200,
,,,0.037280000000,  -0.54600,
,,,0.037290000000,  -0.51800,
,,,0.037300000000,  -0.54800,
,,,0.037310000000,  -0.52400,
,,,0.037320000000,  -0.55400,
,,,0.037330000000,  -0.53800,
,,,0.037340000000,  -0.55200,
,,,0.037350000000,  -0.54000,
,,,0.037360000000,  -0.54800,
,,,0.037370000000,  -0.54600,
,,,0.037380000000,  -0.56000,
,,,0.037390000000,  -0.55400,
,,,0.037400000000,  -0.55400,
,,,0.037410000000,  -0.56000,
,,,0.037420000000,  -0.56000,
,,,0.037430000000,  -0.56800,
,,,0.037440000000,  -0.55400,
,,,0.037450000000,  -0.56400,
,,,0.037460000000,  -0.55200,
,,,0.037470000000,  -0.56600,
,,,0.037480000000,  -0.55400,
,,,0.037490000000,  -0.57000,
,,,0.037500000000,  -0.55600,
,,,0.037510000000,  -0.56400,
,,,0.037520000000,  -0.55800,
,,,0.037530000000,  -0.57200,
,,,0.037540000000,  -0.55600,
,,,0.037550000000,  -0.57000,
,,,0.037560000000,  -0.55600,
,,,0.037570000000,  -0.56000,
,,,0.037580000000,  -0.55800,
,,,0.037590000000,  -0.56200,
,,,0.037600000000,  -0.56000,
,,,0.037610000000,  -0.55800,
,,,0.037620000000,  -0.56000,
,,,0.037630000000,  -0.54800,
,,,0.037640000000,  -0.55400,
,,,0.037650000000,  -0.54600,
,,,0.037660000000,  -0.56000,
,,,0.037670000000,  -0.54000,
,,,0.037680000000,  -0.54800,
,,,0.037690000000,  -0.53800,
,,,0.037700000000,  -0.54000,
,,,0.037710000000,  -0.52400,
,,,0.037720000000,  -0.54200,
,,,0.037730000000,  -0.52200,
,,,0.037740000000,  -0.53000,
,,,0.037750000000,  -0.50400,
,,,0.037760000000,  -0.52200,
,,,0.037770000000,  -0.51600,
,,,0.037780000000,  -0.51800,
,,,0.037790000000,  -0.51000,
,,,0.037800000000,  -0.50400,
,,,0.037810000000,  -0.50400,
,,,0.037820000000,  -0.50200,
,,,0.037830000000,  -0.49800,
,,,0.037840000000,  -0.49400,
,,,0.037850000000,  -0.49800,
,,,0.037860000000,  -0.46800,
,,,0.037870000000,  -0.49000,
,,,0.037880000000,  -0.47800,
,,,0.037890000000,  -0.47800,
,,,0.037900000000,  -0.47000,
,,,0.037910000000,  -0.47800,
,,,0.037920000000,  -0.45200,
,,,0.037930000000,  -0.47600,
,,,0.037940000000,  -0.45200,
,,,0.037950000000,  -0.46400,
,,,0.037960000000,  -0.45000,
,,,0.037970000000,  -0.45400,
,,,0.037980000000,  -0.43400,
,,,0.037990000000,  -0.44400,
,,,0.038000000000,  -0.43800,
,,,0.038010000000,  -0.43000,
,,,0.038020000000,  -0.42800,
,,,0.038030000000,  -0.42200,
